2,Coca Cola,1.5,1,12-11-2019
3,Oreo,1.7,6,20-01-2020
4,Tasto,0.8,6,2020-05-25
6,Yogurt,0.7,4,2020-05-25
7,Pepsi,0.5,12,2020-05-25
8,Orange,6.0,2,2020-05-27
10,Iphone,999.0,10,2020-05-28
11,Dell Laptop,1000.0,3,2020-05-29
13,apple,2.0,2,2020-05-29
14,Orange,2.0,2,2020-05-29
15,kkk,1.0,1,2020-05-29
